{
  "swagger": {
    "outputDirectory": "./api/swagger",
    "entryFile": "./src/index.ts",
    "name": "Swagger Application",
    "description": "A Sample application",
    "license": "",
    "produces": ["application/json"],
    "version": "0.0.1"
  }
}
